measurements/measurements/goodMeasurement.csv

#Digilent WaveForms Oscilloscope Acquisition
#Device Name: Discovery3
#Serial Number: SN:210415BB05B2
#Date Time: 2026-03-11 12:11:33.753.146.620
#Sample rate: 3200Hz
#Samples: 16384
#Trigger: Source: Channel 2 Type: Edge Condition: Rising Level: 0 V Hyst.: Auto HoldOff: 0 s
#Channel 1: Range: 5 V/div Offset: 0 V Attenuation: 10 X Sample Mode: Average
#Channel 2: Range: 5 V/div Offset: 0 V Attenuation: 10 X Sample Mode: Average

Time (s),Channel 1 (V),Channel 2 (V)
-2.56,0.01287949804777646,-0.07225046569852564
-2.5596875,0.01287949804777646,-0.09296308086024237
-2.559375,0.01367678786450337,-0.09136980277088098
-2.5590625,0.01447407768123172,-0.08340341232406542
-2.55875,0.01606865731468698,-0.06826727047511857
-2.5584375,0.01766323694814223,-0.05074121149212749
-2.558125,0.02005510639832512,-0.03162187441977359
-2.5578125,0.02244697584851236,-0.01409581543676729
-2.5575,0.02723071474887378,0.002633604501527164
-2.5571875,0.03041987401578429,0.01617646826111118
-2.556875,0.03201445364923954,0.02493949775261034
-2.5565625,0.03201445364923954,0.02892269297601379
-2.55625,0.03281174346596717,0.03210924915473944
-2.5559375,0.03201445364924027,0.03290588819942013
-2.555625,0.03281174346596717,0.03290588819942085
-2.5553125,0.03281174346596717,0.03290588819942085
-2.555,0.03281174346596717,0.03290588819942085
-2.5546875,0.03201445364923954,0.03290588819942085
-2.554375,0.03281174346596862,0.03210924915474379
-2.5540625,0.03440632309942243,0.03688908342282791
-2.55375,0.03679819254960531,0.05600842049518182
-2.5534375,0.03679819254961111,0.06955128425480062
-2.553125,0.04317651108342634,0.1077899583994737
-2.5528125,0.04875753980051974,0.1786908333761194
-2.5525,0.04716296016706593,0.215336229431431
-2.5521875,0.04796024998379211,0.2336589274591369
-2.551875,0.04716296016706448,0.2336589274591369
-2.5515625,0.04955482961724519,0.2408286788612631
-2.55125,0.04716296016706448,0.2312690103250926
-2.5509375,0.04556838053360922,0.2137429513421016
-2.550625,0.04556838053360922,0.1898437800016592
-2.5503125,0.04397380090015397,0.1627580524824911
-2.55,0.040784641633242,0.1332824078292557
-2.5496875,0.0391900619997882,0.1077899583994737
-2.549375,0.0391900619997882,0.08468742610371269
-2.5490625,0.03759548236633221,0.06477144998666069
-2.54875,0.03679819254960531,0.04644875195900487
-2.5484375,0.03121716383251191,0.01537982921642977
-2.548125,0.0256361351154236,-0.007722703079310191
-2.5478125,0.02404155548196326,-0.01648573257082674
-2.5475,0.02164968603178038,-0.02923195728572935
-2.5471875,0.01846052676487276,-0.04755465531338518
-2.546875,0.01766323694814223,-0.05950424098362303
-2.5465625,0.01686594713141388,-0.06747063143044441
-2.54625,0.01606865731468698,-0.07543702187725129
-2.5459375,0.01606865731468698,-0.08021685614533977
-2.545625,0.01846052676486986,-0.06906390951978912
-2.5453125,0.01846052676486986,-0.0571143238495788
-2.545,0.01925781658159749,-0.04596137722403901
-2.5446875,0.01925781658159749,-0.03958826486659351
-2.544375,0.02404155548196326,-0.01887564970487098
-2.5440625,0.02723071474887378,-0.002146229766561313
-2.54375,0.02483884529869307,-0.002942868811242001
-2.5434375,0.01287949804777646,-0.05472440671553456
-2.543125,0.01287949804777646,-0.08977652468151671
-2.5428125,0.01367678786450409,-0.09375971990492378
-2.5425,0.01447407768123172,-0.08738660754747248
-2.5421875,0.0160686573146877,-0.07225046569851405
-2.541875,0.01686594713141461,-0.05950424098362303
-2.5415625,0.01925781658159749,-0.03719834773254348
-2.54125,0.021649686031784,-0.01887564970485649
-2.5409375,0.02563613511541852,-0.002942868811242726
-2.540625,0.03041987401578429,0.0113966339930227
-2.5403125,0.03121716383251119,0.02414285870791372
-2.54,0.03281174346596717,0.02892269297601379
-2.5396875,0.03281174346596717,0.03131261011005802
-2.539375,0.03281174346596717,0.03370252724410009
-2.5390625,0.03281174346596717,0.03449916628878368
-2.53875,0.03360903328269407,0.03449916628878368
-2.5384375,0.03281174346596717,0.03449916628878368
-2.538125,0.03281174346596717,0.03449916628878368
-2.5378125,0.03201445364924027,0.03370252724410298
-2.5375,0.03281174346596717,0.03449916628878368
-2.5371875,0.03520361291615006,0.05043194718241193
-2.536875,0.03759548236633077,0.06795800616538708
-2.5365625,0.03998735181651582,0.0862807041930755
-2.53625,0.04796024998379211,0.1595714963037655
-2.5359375,0.04796024998379211,0.2049799218505647
-2.535625,0.04875753980051974,0.2296757322357298
-2.5353125,0.04796024998379211,0.2344555665038183
-2.535,0.04875753980051974,0.2384387617272253
-2.5346875,0.04796024998379211,0.2368454836378625
-2.534375,0.04556838053360995,0.2209127027442154
-2.5340625,0.04636567035033685,0.2002000875825175
-2.53375,0.04556838053360922,0.1723177210186681
-2.5334375,0.04317651108342344,0.145231993499474
-2.533125,0.03998735181651582,0.1165529878909692
-2.5328125,0.03998735181651582,0.09185717750584539
-2.5325,0.03839277218306202,0.07114456234414751
-2.5321875,0.03759548236633294,0.05361850336113758
-2.531875,0.0336090332826948,0.02732941488665096
-2.5315625,0.02643342493215267,-0.002942868811215194
-2.53125,0.02483884529869089,-0.01409581543678251
-2.5309375,0.0216496860317782,-0.0236554839729754
-2.530625,0.01925781658159749,-0.04118154295595054
-2.5303125,0.01766323694814223,-0.05552104576021597
-2.53,0.01766323694814151,-0.06587735334108014
-2.5296875,0.01686594713141461,-0.07225046569852564
-2.529375,0.01606865731468698,-0.0818101342347026
-2.5290625,0.01766323694814078,-0.07304710474321502
-2.52875,0.01846052676486986,-0.06189415811766727
-2.5284375,0.01925781658159749,-0.04994457244744608
-2.528125,0.01925781658159749,-0.0419781820006392
-2.5278125,0.022446975848508,-0.02763867919636652
-2.5275,0.02723071474887378,-0.006129424989968377
-2.5271875,0.02882529438232903,0.003430243546208577
-2.526875,0.01686594713141461,-0.03640170868786206
-2.5265625,0.01287949804777719,-0.08340341232407485
-2.52625,0.01367678786450409,-0.09375971990492378
-2.5259375,0.01447407768123172,-0.09057316372619813
-2.525625,0.0152713674979608,-0.07942021710064603
-2.5253125,0.01686594713141461,-0.06587735334107434
-2.525,0.01925781658159749,-0.0451647381793576
-2.5246875,0.0208523962150513,-0.0252487620623404
-2.524375,0.02404155548196326,-0.008519342124012615
-2.5240625,0.02882529438232903,0.006616799724934228
-2.52375,0.03201445364923664,0.01936302443982524
-2.5234375,0.03281174346596717,0.02732941488665096
-2.523125,0.03201445364923954,0.03131261011005947
-2.5228125,0.03201445364923954,0.03290588819942085
-2.5225,0.03281174346596717,0.03370252724410226
-2.5221875,0.03281174346596644,0.03449916628878368
-2.521875,0.03201445364923954,0.03449916628878368
-2.5215625,0.03201445364923954,0.03370252724410226
-2.52125,0.03281174346596645,0.03370252724410226
-2.5209375,0.03281174346596717,0.03210924915473944
-2.520625,0.03520361291615006,0.04246555673559781
-2.5203125,0.03679819254960386,0.06238153285261501
-2.52,0.03839277218306057,0.0735344794781729
-2.5196875,0.0447710907168816,0.1308924906952346
-2.519375,0.04875753980051974,0.1922336971357034
-2.5190625,0.04716296016706448,0.2240992589229599
-2.51875,0.04796024998379211,0.2352522055484997
-2.5184375,0.04796024998379211,0.2352522055484997
-2.518125,0.04796024998379211,0.2392354007719067
-2.5178125,0.04556838053360922,0.2256925370123068
-2.5175,0.04556838053360922,0.2081664780293317
-2.5171875,0.04556838053360922,0.181877389554845
-2.516875,0.04317651108342851,0.156384940125063
-2.5165625,0.03998735181651582,0.1261126564271461
-2.51625,0.0391900619997882,0.1006202069973409
-2.5159375,0.03839277218306129,0.07751767470160098
-2.515625,0.03759548236633294,0.05839833762922606
-2.5153125,0.03600090273287115,0.03848236151216104
-2.515,0.02882529438232903,0.005820160680252815
-2.5146875,0.02483884529869089,-0.01170589830273827
-2.514375,0.02324426566523346,-0.01967228874956689
-2.5140625,0.02085239621505275,-0.03560506964318065
-2.51375,0.01846052676486986,-0.05233448958149032
-2.5134375,0.01766323694814296,-0.06348743620701995
-2.513125,0.01686594713141461,-0.0698605485644814
-2.5128125,0.01447407768123172,-0.07862357805597694
-2.5125,0.01686594713141243,-0.07782693901129625
-2.5121875,0.01846052676486986,-0.06508071429639292
-2.511875,0.01925781658159749,-0.05392776767085315
-2.5115625,0.01925781658159749,-0.0451647381793576
-2.51125,0.02085239621505275,-0.03640170868786206
-2.5109375,0.02563613511542142,-0.01329917639208733
-2.510625,0.02882529438232903,0.001836965456845751
-2.5103125,0.02085239621505275,-0.01648573257082674
-2.51,0.01208220823104956,-0.07065718760918238
-2.5096875,0.01287949804777646,-0.09216644181556095
-2.509375,0.01367678786450409,-0.09216644181556095
-2.5090625,0.014474077681231,-0.08579332945811545
-2.50875,0.01606865731468698,-0.0698605485644814
-2.5084375,0.01766323694814223,-0.05313112862617173
-2.508125,0.02005510639832294,-0.03241851346447384
-2.5078125,0.02324426566523563,-0.01489245448146392
-2.5075,0.0280280045656043,0.001836965456858793
-2.5071875,0.03121716383251191,0.01617646826111118
-2.506875,0.03201445364923954,0.02493949775260672
-2.5065625,0.03281174346596717,0.02971933202069738
-2.50625,0.03281174346596717,0.03210924915473944
-2.5059375,0.0336090332826948,0.03370252724410226
-2.505625,0.0336090332826948,0.03449916628878295
-2.5053125,0.0336090332826948,0.03370252724410226
-2.505,0.03281174346596717,0.03370252724410226
-2.5046875,0.03281174346596717,0.03370252724410226
-2.504375,0.03281174346596717,0.03210924915473944
-2.5040625,0.03440632309942243,0.03688908342282791
-2.50375,0.03679819254960531,0.05680505953986324
-2.5034375,0.03759548236633294,0.07114456234412866
-2.503125,0.04317651108343214,0.1038067631761332
-2.5028125,0.04955482961724737,0.1770975552867566
-2.5025,0.04796024998379211,0.2161328684761458
-2.5021875,0.04875753980051901,0.2344555665038176
-2.501875,0.04796024998379211,0.2336589274591369
-2.5015625,0.050352119433975,0.2424219569506324
-2.50125,0.04716296016706738,0.2328622884144642
-2.5009375,0.04636567035033685,0.2169295075208272
-2.500625,0.04636567035033685,0.1930303361803848
-2.5003125,0.04477109071688305,0.1667412477059221
-2.5,0.04237922126669871,0.1364689640080045
-2.4996875,0.03998735181651582,0.1093832364888155
-2.499375,0.03998735181651582,0.0862807041930755
-2.4990625,0.03839277218306057,0.06556808903135877
-2.49875,0.03679819254960096,0.04804203004833944
-2.4984375,0.03201445364923954,0.01697310730579259
-2.498125,0.02643342493214615,-0.007722703079331202
-2.4978125,0.02404155548196544,-0.01648573257081877
-2.4975,0.02085239621505275,-0.02923195728572935
-2.4971875,0.01925781658159749,-0.04675801626872043
-2.496875,0.01846052676487059,-0.05870760193893076
-2.4965625,0.01846052676486986,-0.06747063143043716
-2.49625,0.01686594713141461,-0.07543702187725129
-2.4959375,0.01686594713141461,-0.08101349519002118
-2.495625,0.01846052676486986,-0.07065718760916281
-2.4953125,0.01925781658159749,-0.05950424098361289
-2.495,0.01925781658159749,-0.04835129435808325
-2.4946875,0.02005510639832512,-0.04118154295595054
-2.494375,0.02404155548196689,-0.02126556683889783
-2.4940625,0.0280280045656014,-0.002146229766561313
-2.49375,0.02723071474887378,-0.002146229766561313
-2.4934375,0.01447407768124332,-0.05313112862612536
-2.493125,0.01287949804777646,-0.09136980277087954
-2.4928125,0.01447407768123172,-0.09375971990492378
-2.4925,0.01527136749795862,-0.08897988563683965
-2.4921875,0.01606865731468698,-0.07464038283256988
-2.491875,0.01766323694814441,-0.06030088002828488
-2.4915625,0.02005510639832512,-0.0387916258219063
-2.49125,0.022446975848508,-0.0196722887495524
-2.4909375,0.0272307147488774,-0.003739507855911097
-2.490625,0.03121716383251191,0.01059999494834129
-2.4903125,0.03440632309942243,0.02254958061856248
-2.49,0.03360903328269553,0.02732941488664661
-2.4896875,0.0336090332826948,0.03131261011005802
-2.489375,0.03440632309942243,0.03290588819942085
-2.4890625,0.03360903328269553,0.03449916628878223
-2.48875,0.0336090332826948,0.03290588819942085
-2.4884375,0.0336090332826948,0.03290588819942085
-2.488125,0.0336090332826948,0.03290588819942085
-2.4878125,0.0336090332826948,0.03290588819942085
-2.4875,0.03360903328269698,0.03290588819943534
-2.4871875,0.03600090273287768,0.0488386690930491
-2.486875,0.03759548236633294,0.06636472807604019
-2.4865625,0.0399873518165238,0.08389078705909721
-2.48625,0.04875753980051974,0.1563849401250398
-2.4859375,0.04955482961724737,0.204979921850606
-2.485625,0.04955482961724737,0.2296757322357074
-2.4853125,0.04875753980051974,0.2360488445931811
-2.485,0.04955482961724737,0.2400320398165882
-2.4846875,0.04875753980052046,0.2392354007719075
-2.484375,0.04636567035033685,0.2217093417889157
-2.4840625,0.04636567035033613,0.2033866437612171
-2.48375,0.04556838053360922,0.1747076381527123
-2.4834375,0.04317651108342634,0.1484185496782257
-2.483125,0.04078464163324273,0.1181462659803096
-2.4828125,0.03998735181651582,0.09345045559520822
-2.4825,0.0391900619997882,0.07194120138881008
-2.4821875,0.03839277218306129,0.05441514240583493
-2.481875,0.03440632309942243,0.02892269297601379
-2.4815625,0.0280280045656014,-0.0013495907218799
-2.48125,0.02563613511542069,-0.0148924544814516
-2.4809375,0.022446975848508,-0.02445212301764087
-2.480625,0.02085239621505275,-0.04118154295595054
-2.4803125,0.02005510639832512,-0.05552104576021597
-2.48,0.01925781658159749,-0.06667399238575575
-2.4796875,0.01766323694814151,-0.07225046569853506
-2.479375,0.01686594713141461,-0.08260677327938401
-2.4790625,0.01766323694814223,-0.07543702187725129
-2.47875,0.01925781658159749,-0.06269079716233854
-2.4784375,0.01925781658159749,-0.05153785053680891
-2.478125,0.02005510639832512,-0.04357146008999477
-2.4778125,0.02324426566523273,-0.02923195728574239
-2.4775,0.02723071474887378,-0.00692606403464979
-2.4771875,0.03041987401578429,0.003430243546208577
-2.476875,0.01766323694815384,-0.03321515250910308
-2.4765625,0.01287949804777646,-0.08260677327938401
-2.47625,0.01367678786450482,-0.09535299799428298
-2.4759375,0.01447407768123172,-0.09136980277087954
-2.475625,0.01606865731468698,-0.08101349519002118
-2.4753125,0.01766323694814368,-0.06587735334105767
-2.475,0.01925781658159749,-0.04755465531340184
-2.4746875,0.02085239621505275,-0.02684204015168511
-2.474375,0.02483884529868726,-0.01011262021339066
-2.4740625,0.02962258419905666,0.005820160680252815
-2.47375,0.03201445364923954,0.01856638539515542
-2.4734375,0.03281174346596645,0.0265327758419623
-2.473125,0.03281174346596717,0.03051597106537661
-2.4728125,0.0336090332826948,0.03210924915473944
-2.4725,0.03281174346596717,0.03290588819942085
-2.4721875,0.0336090332826948,0.03370252724410226
-2.471875,0.03360903328269335,0.03370252724410226
-2.4715625,0.03201445364923954,0.03370252724410226
-2.47125,0.03281174346596717,0.03370252724410226
-2.4709375,0.03360903328269698,0.03290588819942882
-2.470625,0.03600090273287768,0.04166891769091639
-2.4703125,0.03759548236633294,0.06158489380795171
-2.47,0.03839277218305985,0.07353447947816204
-2.4696875,0.04556838053360922,0.1308924906952346
-2.469375,0.04955482961724737,0.1922336971357034
-2.4690625,0.04955482961724737,0.2240992589229309
-2.46875,0.04955482961724737,0.2376421226825439
-2.4684375,0.04875753980052046,0.2376421226825483
-2.468125,0.04955482961724737,0.2424219569506324
-2.4678125,0.04796024998379211,0.228082454146367
-2.4675,0.04636567035033685,0.2105563951633534
-2.4671875,0.04636567035033685,0.1858605847782521
-2.466875,0.04397380090015397,0.1579782182144027
-2.4665625,0.04158193144997326,0.1277059345165365
-2.46625,0.03998735181651582,0.1022134850867038
-2.4659375,0.03998735181651582,0.07990759183562421
-2.465625,0.03839277218306202,0.06078825476328768
-2.4653125,0.03600090273287768,0.04007563960155357
-2.465,0.03041987401578429,0.008210077814297053
-2.4646875,0.02643342493214615,-0.01090925925805685
-2.464375,0.02483884529869089,-0.0196722887495524
-2.4640625,0.0208523962150513,-0.03560506964319587
-2.46375,0.01925781658159749,-0.05233448958149032
-2.4634375,0.01846052676486986,-0.0634874362070301
-2.463125,0.01766323694814078,-0.07065718760917152
-2.4628125,0.01606865731468698,-0.08021685614533977
-2.4625,0.01686594713141461,-0.08101349519002118
-2.4621875,0.02005510639832222,-0.06747063143044948
-2.461875,0.02005510639832512,-0.05631768480489738
-2.4615625,0.02005510639832512,-0.04596137722403901
-2.46125,0.02164968603177893,-0.03719834773255144
-2.4609375,0.02643342493214615,-0.01409581543678251
-2.460625,0.02962258419905086,0.0002436873674698837
-2.4603125,0.02324426566523563,-0.01409581543678251
-2.46,0.01367678786450409,-0.06906390951979999
-2.4596875,0.01367678786450482,-0.09535299799428516
-2.459375,0.01447407768123172,-0.09375971990492378
-2.4590625,0.01447407768123172,-0.08579332945810965
-2.45875,0.01686594713141243,-0.07145382665385727
-2.4584375,0.01846052676486986,-0.05472440671553456
-2.458125,0.02005510639832512,-0.03401179155381782
-2.4578125,0.02324426566523273,-0.01568909352616199
-2.4575,0.02723071474887378,0.0002436873674829254
-2.4571875,0.03041987401578429,0.01378655112706694
-2.456875,0.03281174346596717,0.02493949775260672
-2.4565625,0.03281174346596717,0.02892269297601379
-2.45625,0.0328117434659679,0.03131261011005947
-2.4559375,0.0336090332826948,0.03290588819942085
-2.455625,0.0336090332826948,0.03290588819942085
-2.4553125,0.0336090332826948,0.03370252724410226
-2.455,0.0336090332826948,0.03370252724410226
-2.4546875,0.03281174346596717,0.03370252724410226
-2.454375,0.03281174346596717,0.03210924915474089
-2.4540625,0.0336090332826948,0.0360924443781465
-2.45375,0.03600090273287768,0.054415142405819
-2.4534375,0.03679819254960459,0.07034792329943276
-2.453125,0.04237922126669871,0.1022134850867038
-2.4528125,0.04875753980051901,0.1763009162421099
-2.4525,0.04796024998379211,0.214539590386783
-2.4521875,0.04955482961724737,0.2344555665038183
-2.451875,0.04796024998379356,0.235252205548507
-2.4515625,0.04955482961724737,0.2432185959953138
-2.45125,0.04875753980051974,0.2352522055484997
-2.4509375,0.04636567035033903,0.2177261465655246
-2.450625,0.04636567035033685,0.1954202533144291
-2.4503125,0.0447710907168816,0.168334525795261
-2.45,0.04237922126670089,0.1396555201867563
-2.4496875,0.03998735181651582,0.1109765145781993
-2.449375,0.03998735181651582,0.08707734323775691
-2.4490625,0.03839277218306057,0.06636472807604019
-2.44875,0.03759548236633294,0.0488386690930491
-2.4484375,0.03121716383250756,0.01856638539513151
-2.448125,0.02643342493214615,-0.007722703079331202
-2.4478125,0.02483884529869089,-0.01648573257082674
-2.4475,0.02244697584850583,-0.02923195728574529
-2.4471875,0.02005510639832512,-0.04675801626872043
-2.446875,0.01846052676486986,-0.05950424098362303
-2.4465625,0.01846052676486986,-0.0690639095197913
-2.44625,0.01766323694814223,-0.07623366092193271
-2.4459375,0.01686594713141461,-0.08340341232406542
-2.445625,0.01846052676486841,-0.07145382665385509
-2.4453125,0.02005510639832512,-0.05950424098362303
-2.445,0.02005510639832584,-0.04835129435807673
-2.4446875,0.02085239621505275,-0.04118154295595054
-2.444375,0.02404155548196326,-0.02206220588359663
-2.4440625,0.02802800456560068,-0.002942868811240552
-2.44375,0.02723071474887378,-0.0005529516771984874
-2.4434375,0.01527136749795935,-0.05074121149212749
-2.443125,0.01287949804777864,-0.08977652468148122
-2.4428125,0.01367678786450409,-0.09455635894960519
-2.4425,0.01527136749795935,-0.08977652468151671
-2.4421875,0.01686594713141316,-0.07623366092194503
-2.441875,0.01766323694814223,-0.06189415811766727
-2.4415625,0.01925781658159749,-0.03958826486658772
-2.44125,0.02324426566523563,-0.02126556683891522
-2.4409375,0.02643342493214615,-0.005332785945286964
-2.440625,0.03121716383251336,0.009803355903671472
-2.4403125,0.03281174346596717,0.02254958061856248
-2.44,0.0336090332826948,0.02892269297601379
-2.4396875,0.03360903328269553,0.03210924915474089
-2.439375,0.03440632309942243,0.03370252724410226
-2.4390625,0.0336090332826948,0.03449916628878368
-2.43875,0.03440632309942171,0.03449916628878368
