measurements/measurements/goodMeasurement_364V_input.csv

#Digilent WaveForms Oscilloscope Acquisition
#Device Name: Discovery3
#Serial Number: SN:210415BB05B2
#Date Time: 2026-03-11 12:33:56.199.602.260
#Sample rate: 3200Hz
#Samples: 16384
#Trigger: Source: Channel 2 Type: Edge Condition: Rising Level: 0 V Hyst.: Auto HoldOff: 0 s
#Channel 1: Range: 5 V/div Offset: 0 V Attenuation: 10 X Sample Mode: Average
#Channel 2: Range: 5 V/div Offset: 0 V Attenuation: 10 X Sample Mode: Average

Time (s),Channel 1 (V),Channel 2 (V)
-2.56,0.03600090273287768,0.03131261011005802
-2.5596875,0.03600090273287768,0.03449916628878368
-2.559375,0.03600090273287768,0.03688908342282574
-2.5590625,0.03600090273287768,0.03768572246750933
-2.55875,0.03679819254960531,0.03768572246750933
-2.5584375,0.03679819254960531,0.03848236151219074
-2.558125,0.03600090273287768,0.03768572246750933
-2.5578125,0.03679819254960604,0.03688908342283371
-2.5575,0.03759548236633294,0.04326219578027921
-2.5571875,0.03998735181651582,0.06477144998667736
-2.556875,0.04078464163324926,0.07990759183566405
-2.5565625,0.04716296016706448,0.1237227392931019
-2.55625,0.05194669906743025,0.2009967266271989
-2.5559375,0.05354127870088406,0.2440152350399561
-2.555625,0.05354127870088551,0.2663211282910748
-2.5553125,0.05274398888415788,0.2671177673357562
-2.555,0.05433856851761169,0.2750841577825631
-2.5546875,0.05194669906743025,0.2623379330676677
-2.554375,0.05114940925070045,0.2424219569506099
-2.5540625,0.04875753980051974,0.2177261465655086
-2.55375,0.04875753980051974,0.1866572238229335
-2.5534375,0.04636567035033468,0.152401744901606
-2.553125,0.04397380090015397,0.1229261002484205
-2.5528125,0.04317651108342634,0.09663701177393387
-2.5525,0.04237922126669944,0.07194120138883253
-2.5521875,0.04078464163324345,0.05043194718241193
-2.551875,0.03520361291615006,0.01537982921642977
-2.5515625,0.02962258419906174,-0.01011262021335226
-2.55125,0.02723071474887378,-0.02046892779423381
-2.5509375,0.02404155548196326,-0.03640170868786206
-2.550625,0.02164968603178038,-0.05472440671553456
-2.5503125,0.02085239621505275,-0.06826727047511857
-2.55,0.01925781658159677,-0.07862357805598491
-2.5496875,0.01846052676486986,-0.08738660754747248
-2.549375,0.01846052676486986,-0.09136980277087954
-2.5490625,0.02005510639832584,-0.07703029996660325
-2.54875,0.02085239621505275,-0.06508071429639292
-2.5484375,0.02164968603178038,-0.05472440671553456
-2.548125,0.02244697584850728,-0.04675801626872767
-2.5478125,0.02643342493214615,-0.02365548397295946
-2.5475,0.03041987401578429,-0.004536146900605552
-2.5471875,0.02643342493214977,-0.009315981168689681
-2.546875,0.01527136749795935,-0.06747063143043716
-2.5465625,0.01527136749796007,-0.1049126665304636
-2.54625,0.01606865731468698,-0.1049126665304636
-2.5459375,0.01686594713141461,-0.09853955417301226
-2.545625,0.01766323694814368,-0.08181013423468883
-2.5453125,0.01925781658159749,-0.06667399238575575
-2.545,0.02164968603178038,-0.04357146008999477
-2.5446875,0.02324426566523418,-0.02365548397297757
-2.544375,0.0280280045656014,-0.006129424989968377
-2.5440625,0.03281174346596717,0.009803355903659879
-2.54375,0.03520361291614789,0.02414285870791227
-2.5434375,0.03600090273287768,0.0297193320206952
-2.543125,0.03600090273287768,0.03370252724410226
-2.5428125,0.03600090273287768,0.0360924443781465
-2.5425,0.03600090273287768,0.03768572246750933
-2.5421875,0.03600090273287768,0.03768572246750933
-2.541875,0.03600090273287768,0.03768572246750933
-2.5415625,0.03679819254960531,0.03848236151219074
-2.54125,0.03679819254960531,0.03688908342282936
-2.5409375,0.03679819254960531,0.03848236151219074
-2.540625,0.03998735181651582,0.05680505953986324
-2.5403125,0.04158193144996963,0.07592439661219975
-2.54,0.04397380090015397,0.0982302898632967
-2.5396875,0.05274398888415788,0.1786908333761194
-2.539375,0.05194669906743098,0.2304723712803641
-2.5390625,0.05354127870088551,0.2591513768889421
-2.53875,0.05274398888415933,0.2663211282910806
-2.5384375,0.05433856851761314,0.2726942406485261
-2.538125,0.05274398888415788,0.268711045425119
-2.5378125,0.05114940925070117,0.2479984302633842
-2.5375,0.04955482961724737,0.228082454146367
-2.5371875,0.04875753980051974,0.1962168923591105
-2.536875,0.04636567035033903,0.1651479696165636
-2.5365625,0.04556838053360922,0.1332824078292789
-2.53625,0.04317651108342634,0.1061966803101108
-2.5359375,0.04317651108342634,0.07911095279096743
-2.535625,0.04078464163324345,0.05839833762922606
-2.5353125,0.03759548236633294,0.02892269297601379
-2.535,0.02962258419905666,-0.005332785945286964
-2.5346875,0.02723071474887378,-0.01807901066018957
-2.534375,0.02483884529868871,-0.03002859633042742
-2.5340625,0.022446975848508,-0.04835129435808325
-2.53375,0.02085239621505275,-0.0634874362070301
-2.5334375,0.01925781658159749,-0.07623366092193851
-2.533125,0.01925781658159749,-0.08260677327938401
-2.5328125,0.01846052676486986,-0.09375971990492378
-2.5325,0.01925781658159677,-0.08340341232407485
-2.5321875,0.02085239621505275,-0.0698605485644814
-2.531875,0.022446975848508,-0.05791096289426021
-2.5315625,0.022446975848508,-0.04994457244745332
-2.53125,0.02404155548196326,-0.03480843059849924
-2.5309375,0.02802800456560358,-0.01090925925804671
-2.530625,0.03041987401578429,0.0002436873674829254
-2.5303125,0.01846052676486986,-0.0451647381793576
-2.53,0.0152713674979608,-0.09694627608365668
-2.5296875,0.01686594713141461,-0.1049126665304636
-2.529375,0.01686594713141461,-0.1017261103517379
-2.5290625,0.01846052676486841,-0.0881832465921662
-2.52875,0.01925781658159749,-0.07225046569852564
-2.5284375,0.02085239621505275,-0.05153785053680891
-2.528125,0.02324426566523346,-0.03241851346447239
-2.5278125,0.02643342493214615,-0.01329917639210109
-2.5275,0.03121716383251191,0.003430243546208577
-2.5271875,0.03520361291615006,0.01936302443983683
-2.526875,0.03600090273287768,0.02732941488665096
-2.5265625,0.03679819254960531,0.03131261011006092
-2.52625,0.03679819254960531,0.03449916628878368
-2.5259375,0.03759548236633294,0.03688908342282791
-2.525625,0.03759548236633221,0.03688908342282791
-2.5253125,0.03679819254960531,0.03688908342282791
-2.525,0.03759548236633294,0.03768572246750933
-2.5246875,0.03759548236633294,0.03768572246750933
-2.524375,0.03759548236633294,0.03688908342282791
-2.5240625,0.0391900619997882,0.0488386690930491
-2.52375,0.040784641633242,0.07034792329942768
-2.5234375,0.04158193144997108,0.08309414801434986
-2.523125,0.05035211943397717,0.1468252715889266
-2.5228125,0.05274398888415788,0.2169295075208272
-2.5225,0.05354127870088551,0.2511849864421279
-2.5221875,0.05274398888415861,0.2663211282910755
-2.521875,0.05354127870088551,0.2671177673357562
-2.5215625,0.05433856851761314,0.2734908796932075
-2.52125,0.05114940925070553,0.2559648207102324
-2.5209375,0.050352119433975,0.2376421226825439
-2.520625,0.04875753980051974,0.2081664780293317
-2.5203125,0.04796024998379284,0.1794874724208269
-2.52,0.0447710907168816,0.1436387154101372
-2.5196875,0.04317651108342634,0.1157563488462878
-2.519375,0.04317651108342634,0.08946726037180115
-2.5190625,0.04078464163324345,0.0671613671207216
-2.51875,0.0391900619997824,0.0424655567355652
-2.5184375,0.03281174346596717,0.006616799724934228
-2.518125,0.0280280045656014,-0.01409581543678251
-2.5178125,0.02643342493214325,-0.0236554839729754
-2.5175,0.02324426566523563,-0.04118154295595054
-2.5171875,0.02164968603178038,-0.05870760193894162
-2.516875,0.02085239621505347,-0.07225046569851332
-2.5165625,0.01925781658159749,-0.08021685614533977
-2.51625,0.01846052676486986,-0.09136980277087954
-2.5159375,0.01925781658159677,-0.08977652468151816
-2.515625,0.02085239621505275,-0.07543702187725129
-2.5153125,0.02244697584850728,-0.06269079716233998
-2.515,0.02164968603178038,-0.05313112862617173
-2.5146875,0.02324426566523563,-0.04436809913467619
-2.514375,0.0272307147488774,-0.01807901066017508
-2.5140625,0.03121716383251191,-0.002146229766561313
-2.51375,0.022446975848508,-0.02285884492827804
-2.5134375,0.01527136749796587,-0.08260677327932968
-2.513125,0.01686594713141461,-0.105709305575145
-2.5128125,0.01766323694814223,-0.1025227493964193
-2.5125,0.01766323694814223,-0.09455635894961244
-2.5121875,0.01846052676486986,-0.07862357805597694
-2.511875,0.02005510639832512,-0.06109751907298586
-2.5115625,0.022446975848508,-0.03799498677722489
-2.51125,0.02483884529869089,-0.01887564970487098
-2.5109375,0.02962258419905956,-0.0005529516771847212
-2.510625,0.03281174346596717,0.01458319017174836
-2.5103125,0.03600090273287768,0.02653277584196955
-2.51,0.03600090273287768,0.03051597106538096
-2.5096875,0.03600090273287768,0.03529580533346509
-2.509375,0.03600090273287768,0.03688908342282791
-2.5090625,0.03679819254960459,0.03848236151218929
-2.50875,0.03520361291615006,0.03768572246750933
-2.5084375,0.03600090273287768,0.03768572246750933
-2.508125,0.03679819254960459,0.03768572246750933
-2.5078125,0.03600090273287768,0.0360924443781465
-2.5075,0.03759548236633512,0.04166891769093595
-2.5071875,0.03998735181651582,0.06317817189731453
-2.506875,0.04078464163324345,0.07990759183562421
-2.5065625,0.04556838053361575,0.115756348846361
-2.50625,0.05274398888415788,0.1962168923591105
-2.5059375,0.05274398888415788,0.2400320398165882
-2.505625,0.05354127870088478,0.2647278502016895
-2.5053125,0.05274398888415788,0.2655244892463934
-2.505,0.05513585833434077,0.2734908796932075
-2.5046875,0.05274398888416006,0.2639312111570393
-2.504375,0.05194669906743025,0.2432185959953138
-2.5040625,0.04875753980051974,0.21852278561019
-2.50375,0.04955482961724737,0.1882505019122963
-2.5034375,0.04716296016706448,0.1555883010803584
-2.503125,0.04397380090015324,0.1261126564271215
-2.5028125,0.04317651108342634,0.09902692890797811
-2.5025,0.04237922126669871,0.0735344794781729
-2.5021875,0.03998735181651075,0.05361850336110571
-2.501875,0.03440632309942243,0.01856638539515542
-2.5015625,0.02882529438232903,-0.009315981168694028
-2.50125,0.02643342493214832,-0.02046892779422366
-2.5009375,0.02404155548196326,-0.03480843059849924
-2.500625,0.022446975848508,-0.05392776767085315
-2.5003125,0.0208523962150542,-0.06747063143042484
-2.5,0.02005510639832512,-0.07782693901129553
-2.4996875,0.01925781658159749,-0.08658996850279686
-2.499375,0.01925781658159749,-0.09296308086024237
-2.4990625,0.02005510639832512,-0.08021685614533977
-2.49875,0.02164968603178038,-0.06747063143042629
-2.4984375,0.02164968603178038,-0.05552104576021597
-2.498125,0.022446975848508,-0.04914793340276467
-2.4978125,0.02563613511541562,-0.0268420401517054
-2.4975,0.02962258419905666,-0.006129424989968377
-2.4971875,0.0280280045656014,-0.00692606403464979
-2.496875,0.01606865731469785,-0.06348743620697865
-2.4965625,0.01527136749795935,-0.1033193884411007
-2.49625,0.01766323694814223,-0.1033193884411007
-2.4959375,0.01686594713141461,-0.09933619321769367
-2.495625,0.01846052676486986,-0.08340341232406542
-2.4953125,0.02005510639832657,-0.06906390951977898
-2.495,0.02164968603178038,-0.04596137722403901
-2.4946875,0.02404155548196326,-0.02684204015168511
-2.494375,0.02723071474887885,-0.007722703079315987
-2.4940625,0.03281174346596717,0.009006716858978466
-2.49375,0.03600090273287768,0.02254958061856248
-2.4934375,0.03600090273287768,0.02892269297600799
-2.493125,0.03679819254960531,0.03290588819942085
-2.4928125,0.03679819254960531,0.0360924443781465
-2.4925,0.03679819254960531,0.03768572246750788
-2.4921875,0.03600090273287768,0.03848236151219074
-2.491875,0.03679819254960458,0.03768572246751005
-2.4915625,0.03600090273287768,0.03848236151219074
-2.49125,0.03679819254960531,0.03768572246750933
-2.4909375,0.03600090273288058,0.03848236151220596
-2.490625,0.0391900619997882,0.05521178145050041
-2.4903125,0.04078464163324345,0.07512775756753573
-2.49,0.04317651108342417,0.09345045559519155
-2.4896875,0.05194669906743025,0.1715210819739867
-2.489375,0.05194669906743025,0.2272858151016856
-2.4890625,0.05354127870088406,0.2591513768889131
-2.48875,0.05274398888415788,0.2671177673357562
-2.4884375,0.05433856851761314,0.2711009625591633
-2.488125,0.05433856851761314,0.2711009625591633
-2.4878125,0.05194669906743025,0.2519816254868094
-2.4875,0.05035211943397355,0.2304723712803844
-2.4871875,0.04875753980051974,0.2009967266271989
-2.486875,0.04796024998379211,0.168334525795261
-2.4865625,0.04636567035033395,0.1364689640079806
-2.48625,0.04317651108342634,0.1101798755335179
-2.4859375,0.04237922126669871,0.08309414801434986
-2.485625,0.0407846416332449,0.06158489380797127
-2.4853125,0.03759548236633294,0.03290588819942085
-2.485,0.03041987401578429,-0.0013495907218799
-2.4846875,0.02723071474887668,-0.01648573257081298
-2.484375,0.02404155548196326,-0.02843531824104794
-2.4840625,0.02164968603177965,-0.04675801626873419
-2.48375,0.02085239621505275,-0.06189415811766727
-2.4834375,0.02005510639832512,-0.07543702187725129
-2.483125,0.01925781658159677,-0.08101349519003133
-2.4828125,0.01846052676486986,-0.09216644181556095
-2.4825,0.01925781658159749,-0.08499669041342824
-2.4821875,0.0208523962150513,-0.07065718760917586
-2.481875,0.02085239621505275,-0.05950424098362303
-2.4815625,0.02164968603178038,-0.05074121149212749
-2.48125,0.02404155548196108,-0.03640170868787511
-2.4809375,0.0280280045656014,-0.01170589830273827
-2.480625,0.03121716383251191,0.001040326412164338
-2.4803125,0.01846052676486986,-0.0387916258219063
-2.48,0.01447407768123172,-0.09296308086024237
-2.4796875,0.01686594713141461,-0.1057093055751406
-2.479375,0.01686594713141461,-0.1009294713070565
-2.4790625,0.01766323694814223,-0.08977652468151671
-2.47875,0.01846052676487204,-0.07543702187723246
-2.4784375,0.02085239621505275,-0.05472440671553456
-2.478125,0.022446975848508,-0.032418513464455
-2.4778125,0.02643342493214252,-0.01409581543679917
-2.4775,0.03121716383251191,0.003430243546208577
-2.4771875,0.03440632309942243,0.01856638539515542
-2.476875,0.03520361291614933,0.02812605393132368
-2.4765625,0.03600090273287768,0.03210924915473944
-2.47625,0.03679819254960458,0.03609244437814795
-2.4759375,0.03600090273287768,0.03768572246750933
-2.475625,0.03600090273287768,0.03768572246750933
-2.4753125,0.03600090273287768,0.03768572246751005
-2.475,0.03600090273287768,0.03848236151219074
-2.4746875,0.03600090273287768,0.03768572246750933
-2.474375,0.03600090273287768,0.03768572246750933
-2.4740625,0.03759548236633294,0.04724539100368628
-2.47375,0.03998735181651582,0.06875464521008443
-2.4734375,0.04158193144996963,0.08229750896965612
-2.473125,0.04875753980051974,0.1388588811420488
-2.4728125,0.05274398888415788,0.2121496732527387
-2.4725,0.05354127870088551,0.2503883473974465
-2.4721875,0.05354127870088551,0.2679144063804376
-2.471875,0.05354127870088696,0.2679144063804441
-2.4715625,0.05513585833434077,0.2750841577825703
-2.47125,0.05274398888415788,0.2599480159336235
-2.4709375,0.05114940925070045,0.2392354007718814
-2.470625,0.04875753980051974,0.2113530342080573
-2.4703125,0.04875753980051974,0.1842673066888893
-2.47,0.04636567035033903,0.1476219106335776
-2.4696875,0.04397380090015397,0.1189429050250134
-2.469375,0.04317651108342634,0.0926538165505268
-2.4690625,0.04158193144997253,0.06955128425478685
-2.46875,0.0391900619997882,0.04724539100368628
-2.4684375,0.03281174346596282,0.009803355903639592
-2.468125,0.0280280045656014,-0.01250253734741968
-2.4678125,0.02643342493214615,-0.02285884492827804
-2.4675,0.02324426566523418,-0.03799498677724156
-2.4671875,0.02164968603178038,-0.05631768480489738
-2.466875,0.02085239621505275,-0.07065718760916281
-2.4665625,0.01925781658159894,-0.0786235780559697
-2.46625,0.01766323694814223,-0.0889798856368353
-2.4659375,0.01925781658159749,-0.08977652468151671
-2.465625,0.02005510639832439,-0.07543702187726434
-2.4653125,0.02164968603178038,-0.0634874362070301
-2.465,0.02164968603178038,-0.05313112862617173
-2.4646875,0.022446975848508,-0.04436809913467619
-2.464375,0.02643342493214615,-0.02046892779423381
-2.4640625,0.02962258419905158,-0.002146229766574355
-2.46375,0.02404155548196326,-0.01648573257082674
-2.4634375,0.01527136749795935,-0.07703029996661412
-2.463125,0.0160686573146877,-0.1049126665304621
-2.4628125,0.01686594713141461,-0.1033193884411007
-2.4625,0.01686594713141461,-0.09535299799428661
-2.4621875,0.01846052676486841,-0.07942021710067285
-2.461875,0.02085239621505275,-0.06269079716234868
-2.4615625,0.02164968603178038,-0.04038490391126913
-2.46125,0.02404155548196108,-0.02126556683893261
-2.4609375,0.02962258419905666,-0.002146229766561313
-2.460625,0.03360903328269698,0.01298991208239712
-2.4603125,0.03600090273287768,0.02573613679728813
-2.46,0.03600090273287768,0.03131261011005802
-2.4596875,0.03600090273287841,0.03370252724410516
-2.459375,0.03679819254960531,0.03688908342282791
-2.4590625,0.03600090273287768,0.03688908342282791
-2.45875,0.03679819254960459,0.03768572246750861
-2.4584375,0.03679819254960531,0.03768572246750933
-2.458125,0.03679819254960531,0.03848236151219074
-2.4578125,0.03600090273287841,0.03688908342282936
-2.4575,0.03759548236633294,0.04007563960155357
-2.4571875,0.03998735181651582,0.05919497667390747
-2.456875,0.04158193144997108,0.07831431374626138
-2.4565625,0.04556838053360922,0.1085865974441551
-2.45625,0.05274398888415715,0.1898437800017026
-2.4559375,0.05194669906743025,0.2376421226825439
-2.455625,0.05354127870088551,0.2639312111570306
-2.4553125,0.05274398888415933,0.2663211282910828
-2.455,0.05433856851761314,0.2750841577825703
-2.4546875,0.05274398888415788,0.2671177673357562
-2.454375,0.05114940925070408,0.2464051521740583
-2.4540625,0.04875753980051974,0.2233026198782785
-2.45375,0.04875753980051974,0.1938269752250662
-2.4534375,0.04556838053361213,0.1603681353484773
-2.453125,0.0447710907168816,0.1292992126058718
-2.4528125,0.04237922126669871,0.1014168460419992
-2.4525,0.04237922126669871,0.07592439661221714
-2.4521875,0.04078464163324345,0.05600842049518182
-2.451875,0.03600090273287188,0.02334621966321564
-2.4515625,0.02962258419905666,-0.007722703079331202
-2.45125,0.02643342493214615,-0.0196722887495524
-2.4509375,0.02483884529869234,-0.03321515250912409
-2.450625,0.02164968603178038,-0.05153785053680891
-2.4503125,0.02164968603178038,-0.06667399238575575
-2.45,0.02005510639832657,-0.07782693901128539
-2.4496875,0.01925781658159749,-0.08420005136874684
-2.449375,0.01846052676486986,-0.09296308086024237
-2.4490625,0.02005510639832512,-0.08021685614533977
-2.44875,0.02164968603178038,-0.06747063143043716
-2.4484375,0.022446975848508,-0.05631768480489086
-2.448125,0.022446975848508,-0.04914793340276467
-2.4478125,0.02563613511541852,-0.02923195728572935
-2.4475,0.03041987401578356,-0.007722703079326855
-2.4471875,0.02962258419905666,-0.002942868811242726
-2.446875,0.01686594713141461,-0.0571143238495788
-2.4465625,0.0144740776812339,-0.1017261103516973
-2.44625,0.01606865731468698,-0.1049126665304636
-2.4459375,0.01606865731468698,-0.1001328322623751
-2.445625,0.01766323694814078,-0.084996690413442
-2.4453125,0.01846052676486986,-0.07145382665384423
-2.445,0.02085239621505492,-0.04755465531338373
-2.4446875,0.02324426566523563,-0.02763867919636652
-2.444375,0.02643342493214615,-0.01011262021337544
-2.4440625,0.03121716383251554,0.006616799724947994
-2.44375,0.03520361291615006,0.02175294157388107
-2.4434375,0.03520361291615006,0.02812605393133237
-2.443125,0.03600090273287695,0.03210924915473581
-2.4428125,0.03600090273287768,0.03449916628878368
-2.4425,0.03600090273287768,0.03688908342282791
-2.4421875,0.03600090273287768,0.03688908342282791
-2.441875,0.03600090273287768,0.03688908342282791
-2.4415625,0.03600090273287768,0.03688908342282791
-2.44125,0.03600090273287768,0.0360924443781465
-2.4409375,0.03679819254960531,0.0360924443781465
-2.440625,0.03919006199978965,0.0512285862271129
-2.4403125,0.04078464163324345,0.07273784043349149
-2.44,0.04237922126669871,0.08787398228243833
-2.4396875,0.05114940925070263,0.1619614134378655
-2.439375,0.05114940925070263,0.2233026198782785
-2.4390625,0.05354127870088551,0.255168181665535
-2.43875,0.0527439888841586,0.2671177673357453
-2.4384375,0.05354127870088551,0.2695076844698004
