measurements/measurements/okayMeasurement_75V_input.csv

#Digilent WaveForms Oscilloscope Acquisition
#Device Name: Discovery3
#Serial Number: SN:210415BB05B2
#Date Time: 2026-03-11 12:36:48.282.077.430
#Sample rate: 3200Hz
#Samples: 16384
#Trigger: Source: Channel 2 Type: Edge Condition: Rising Level: 0 V Hyst.: Auto HoldOff: 0 s
#Channel 1: Range: 5 V/div Offset: 0 V Attenuation: 10 X Sample Mode: Average
#Channel 2: Range: 5 V/div Offset: 0 V Attenuation: 10 X Sample Mode: Average

Time (s),Channel 1 (V),Channel 2 (V)
-2.56,0.01527136749795935,-0.06826727047511857
-2.5596875,0.01527136749795935,-0.1009294713070565
-2.559375,0.01686594713141316,-0.09933619321769512
-2.5590625,0.01606865731468698,-0.09296308086024237
-2.55875,0.01766323694814223,-0.07703029996661412
-2.5584375,0.01925781658159749,-0.06189415811766727
-2.558125,0.022446975848508,-0.03799498677722489
-2.5578125,0.02404155548196761,-0.02046892779421787
-2.5575,0.02882529438232903,-0.002942868811242726
-2.5571875,0.03281174346596717,0.01298991208238553
-2.556875,0.03520361291614933,0.02493949775261107
-2.5565625,0.03440632309942243,0.0297193320206952
-2.55625,0.03520361291615006,0.03210924915473944
-2.5559375,0.03600090273287695,0.03529580533346219
-2.555625,0.03600090273287768,0.03529580533346509
-2.5553125,0.03679819254960531,0.0360924443781465
-2.555,0.03600090273287841,0.03529580533346581
-2.5546875,0.03600090273287768,0.03529580533346509
-2.554375,0.03520361291615079,0.03370252724410443
-2.5540625,0.03600090273287768,0.0360924443781465
-2.55375,0.03839277218306057,0.05521178145050041
-2.5534375,0.04078464163324708,0.0727378404335154
-2.553125,0.0447710907168816,0.09902692890797811
-2.5528125,0.05194669906743025,0.1786908333761194
-2.5525,0.05114940925070335,0.2248958979675993
-2.5521875,0.05274398888415788,0.2495917083527651
-2.551875,0.05114940925070263,0.2527782645314908
-2.5515625,0.05354127870088334,0.2583547378442556
-2.55125,0.05114940925070263,0.2535749035761722
-2.5509375,0.04955482961724737,0.2336589274591369
-2.550625,0.04796024998379211,0.2121496732527387
-2.5503125,0.04875753980051974,0.181877389554845
-2.55,0.04556838053360632,0.1524017449016045
-2.5496875,0.04237922126669871,0.1213328221590577
-2.549375,0.04158193144997108,0.09504373368457104
-2.5490625,0.04078464163324273,0.07194120138879341
-2.54875,0.03998735181651582,0.05361850336113758
-2.5484375,0.03520361291615006,0.0233462196632439
-2.548125,0.02802800456560793,-0.007722703079302944
-2.5478125,0.02643342493214615,-0.0196722887495524
-2.5475,0.02324426566523563,-0.03082523537509217
-2.5471875,0.02164968603178183,-0.04914793340274801
-2.546875,0.02085239621505275,-0.0634874362070301
-2.5465625,0.02005510639832367,-0.0746403828325764
-2.54625,0.01846052676486986,-0.0818101342347026
-2.5459375,0.01846052676486986,-0.0889798856368353
-2.545625,0.02085239621505347,-0.07862357805596536
-2.5453125,0.02164968603178038,-0.06587735334107434
-2.545,0.02164968603178038,-0.05472440671553456
-2.5446875,0.02164968603178038,-0.04755465531340836
-2.544375,0.02483884529869089,-0.02923195728572935
-2.5440625,0.02962258419905666,-0.007722703079331202
-2.54375,0.02962258419905666,-0.0005529516772050085
-2.5434375,0.01766323694814223,-0.04835129435808325
-2.543125,0.01527136749795935,-0.09535299799428661
-2.5428125,0.01766323694814223,-0.1017261103517379
-2.5425,0.01766323694814223,-0.09614963703896802
-2.5421875,0.01766323694814296,-0.0834034123240531
-2.541875,0.01846052676486986,-0.0698605485644814
-2.5415625,0.02085239621505275,-0.04596137722403901
-2.54125,0.02244697584851163,-0.02684204015166845
-2.5409375,0.02643342493214615,-0.008519342124012615
-2.540625,0.03121716383251191,0.007413438769615641
-2.5403125,0.03520361291614643,0.02175294157386803
-2.54,0.03520361291615006,0.02892269297601379
-2.5396875,0.03520361291615006,0.03210924915473944
-2.539375,0.03520361291615006,0.0344991662887815
-2.5390625,0.03600090273287768,0.0360924443781465
-2.53875,0.03600090273287768,0.03529580533346581
-2.5384375,0.03600090273287768,0.0360924443781465
-2.538125,0.03600090273287768,0.03529580533346509
-2.5378125,0.03600090273287768,0.03529580533346292
-2.5375,0.03600090273287768,0.03290588819942085
-2.5371875,0.03759548236633294,0.04724539100368628
-2.536875,0.03998735181651365,0.06795800616538417
-2.5365625,0.04158193144997108,0.08150086992498703
-2.53625,0.050352119433975,0.1508084668122699
-2.5359375,0.0511494092507019,0.2113530342080022
-2.535625,0.05194669906743025,0.241625317905951
-2.5353125,0.05194669906743025,0.2543715426208536
-2.535,0.05194669906743025,0.255168181665535
-2.5346875,0.05274398888415788,0.2583547378442607
-2.534375,0.05035211943397282,0.2408286788612522
-2.5340625,0.04796024998379211,0.2217093417889157
-2.53375,0.04796024998379211,0.1930303361803848
-2.5334375,0.0463656703503354,0.1619614134377836
-2.533125,0.0447710907168816,0.1332824078292789
-2.5328125,0.04237922126669871,0.1061966803101108
-2.5325,0.04237922126669871,0.08070423088032881
-2.5321875,0.03998735181651582,0.05999161571858888
-2.531875,0.03759548236633294,0.03529580533346509
-2.5315625,0.03041987401579081,0.001040326412195494
-2.53125,0.02723071474887378,-0.01648573257082674
-2.5309375,0.02563613511541562,-0.02524876206233822
-2.530625,0.022446975848508,-0.04277482104531336
-2.5303125,0.02085239621505275,-0.05950424098362303
-2.53,0.02005510639832439,-0.07145382665385003
-2.5296875,0.01925781658159749,-0.07782693901129553
-2.529375,0.01766323694814223,-0.0889798856368353
-2.5290625,0.01925781658159604,-0.08340341232407049
-2.52875,0.02085239621505275,-0.07065718760916281
-2.5284375,0.02164968603178038,-0.05870760193894162
-2.528125,0.02085239621505347,-0.04914793340277336
-2.5278125,0.02324426566523563,-0.03799498677722489
-2.5275,0.0280280045656014,-0.01329917639210109
-2.5271875,0.03201445364923954,0.001040326412164338
-2.526875,0.02164968603178038,-0.02524876206232228
-2.5265625,0.0152713674979608,-0.0826067732794014
-2.52625,0.01686594713141461,-0.1017261103517379
-2.5259375,0.01766323694814223,-0.09853955417301226
-2.525625,0.01766323694814368,-0.09057316372618364
-2.5253125,0.01925781658159749,-0.07464038283256988
-2.525,0.02085239621505275,-0.05313112862617173
-2.5246875,0.02244697584850655,-0.0348084305985159
-2.524375,0.02643342493214615,-0.01648573257082674
-2.5240625,0.03121716383251191,0.001836965456845751
-2.52375,0.03440632309941953,0.01617646826109814
-2.5234375,0.03600090273287768,0.02653277584196955
-2.523125,0.03600090273287768,0.03051597106537879
-2.5228125,0.03600090273287768,0.03290588819942085
-2.5225,0.03600090273287768,0.03370252724410226
-2.5221875,0.03679819254960531,0.03529580533346509
-2.521875,0.03679819254960531,0.03529580533346509
-2.5215625,0.03600090273287768,0.03449916628878368
-2.52125,0.03679819254960459,0.03449916628878368
-2.5209375,0.03679819254960531,0.03370252724410226
-2.520625,0.03839277218306057,0.04007563960155357
-2.5203125,0.04078464163324128,0.06158489380793214
-2.52,0.04078464163324345,0.07592439661221714
-2.5196875,0.04716296016706448,0.1173496269356506
-2.519375,0.05274398888415788,0.1946236142697476
-2.5190625,0.05194669906743025,0.2328622884144555
-2.51875,0.05194669906743025,0.2511849864421279
-2.5184375,0.05194669906743025,0.2511849864421279
-2.518125,0.05274398888415788,0.2599480159336235
-2.5178125,0.04955482961724664,0.2472017912187049
-2.5175,0.04875753980051974,0.2296757322357298
-2.5171875,0.04796024998379211,0.204979921850606
-2.516875,0.04716296016706521,0.1723177210186978
-2.5165625,0.04556838053360922,0.1436387154101372
-2.51625,0.04237922126669871,0.1149597098016064
-2.5159375,0.04237922126669871,0.08867062132714365
-2.515625,0.04078464163324345,0.06636472807604019
-2.5153125,0.0391900619997824,0.0456521129142923
-2.515,0.03281174346596717,0.0113966339930227
-2.5146875,0.02723071474887378,-0.01250253734741968
-2.514375,0.02643342493214252,-0.02206220588360895
-2.5140625,0.022446975848508,-0.03560506964318065
-2.51375,0.02164968603178038,-0.05472440671553456
-2.5134375,0.02005510639832657,-0.06747063143042557
-2.513125,0.02005510639832512,-0.07623366092193271
-2.5128125,0.01846052676486986,-0.08420005136874684
-2.5125,0.01846052676486986,-0.08818324659215027
-2.5121875,0.02085239621505275,-0.07464038283256988
-2.511875,0.02164968603178038,-0.06269079716234868
-2.5115625,0.022446975848508,-0.05233448958149032
-2.51125,0.022446975848508,-0.04436809913467619
-2.5109375,0.02643342493214977,-0.02206220588357997
-2.510625,0.03041987401578429,-0.003739507855924138
-2.5103125,0.02723071474887378,-0.007722703079331202
-2.51,0.01606865731468698,-0.06508071429642408
-2.5096875,0.01606865731468698,-0.09933619321769367
-2.509375,0.01686594713141461,-0.1009294713070565
-2.5090625,0.01686594713141461,-0.0937597199049303
-2.50875,0.01846052676486986,-0.08021685614533977
-2.5084375,0.02005510639832512,-0.06189415811766727
-2.508125,0.02244697584850583,-0.0403849039112887
-2.5078125,0.02483884529869089,-0.02285884492827804
-2.5075,0.02882529438233266,-0.004536146900591786
-2.5071875,0.03281174346596717,0.01059999494834129
-2.506875,0.03520361291615006,0.0233462196632439
-2.5065625,0.03600090273287768,0.02892269297601668
-2.50625,0.03600090273287768,0.03210924915473944
-2.5059375,0.03679819254960531,0.03449916628878368
-2.505625,0.03679819254960531,0.03529580533346437
-2.5053125,0.03600090273287768,0.03529580533346509
-2.505,0.03679819254960531,0.0360924443781465
-2.5046875,0.03679819254960531,0.03449916628878513
-2.504375,0.03679819254960531,0.03370252724410226
-2.5040625,0.03679819254960531,0.03529580533346509
-2.50375,0.0391900619997882,0.05282186431645617
-2.5034375,0.04078464163324345,0.07194120138881008
-2.503125,0.04317651108343432,0.09265381655059998
-2.5028125,0.05194669906743025,0.1731143600633495
-2.5025,0.05114940925070263,0.2225059808335971
-2.5021875,0.05274398888415715,0.2479984302634066
-2.501875,0.05194669906743025,0.2527782645314908
-2.5015625,0.05274398888415788,0.2583547378442607
-2.50125,0.05114940925070408,0.2551681816655379
-2.5009375,0.050352119433975,0.2368454836378625
-2.500625,0.04875753980051974,0.2161328684761458
-2.5003125,0.04796024998379284,0.1834706676442376
-2.5,0.0447710907168816,0.154791662035677
-2.4996875,0.04397380090015252,0.1253160173824401
-2.499375,0.04237922126669871,0.0982302898632967
-2.4990625,0.04158193144997108,0.07433111852285432
-2.49875,0.0399873518165122,0.05441514240579219
-2.4984375,0.03600090273287768,0.02493949775260672
-2.498125,0.02882529438232903,-0.006129424989968377
-2.4978125,0.02643342493214832,-0.01887564970485939
-2.4975,0.02324426566523563,-0.02923195728572935
-2.4971875,0.02164968603178038,-0.04675801626872043
-2.496875,0.02085239621505347,-0.0618941581176535
-2.4965625,0.02005510639832512,-0.07225046569852564
-2.49625,0.01846052676486986,-0.07942021710065836
-2.4959375,0.01766323694814223,-0.08977652468151671
-2.495625,0.02005510639832512,-0.07942021710065836
-2.4953125,0.02085239621505347,-0.06667399238574488
-2.495,0.02164968603178038,-0.05472440671553456
-2.4946875,0.02085239621505275,-0.04835129435808325
-2.494375,0.02483884529869452,-0.03082523537507261
-2.4940625,0.02882529438232903,-0.009315981168694028
-2.49375,0.03121716383251191,0.001040326412164338
-2.4934375,0.01846052676488147,-0.0435714600899542
-2.493125,0.01527136749795935,-0.09375971990492378
-2.4928125,0.01606865731468698,-0.1017261103517379
-2.4925,0.01606865731468698,-0.09774291512833447
-2.4921875,0.01766323694814223,-0.08579332945810965
-2.491875,0.01925781658159894,-0.06986054856446111
-2.4915625,0.02085239621505275,-0.04755465531340184
-2.49125,0.02324426566523563,-0.02843531824104794
-2.4909375,0.0256361351154236,-0.01090925925804091
-2.490625,0.03121716383251191,0.006616799724934228
-2.4903125,0.03440632309942243,0.02015966348451825
-2.49,0.03520361291614933,0.02812605393132513
-2.4896875,0.03600090273287768,0.03210924915473944
-2.489375,0.03600090273287768,0.03449916628878368
-2.4890625,0.03600090273287768,0.03449916628878368
-2.48875,0.03520361291615006,0.0360924443781465
-2.4884375,0.03600090273287768,0.0360924443781465
-2.488125,0.03600090273287768,0.03529580533346509
-2.4878125,0.03600090273287768,0.03529580533346509
-2.4875,0.03520361291615224,0.03370252724411386
-2.4871875,0.03759548236633294,0.04644875195900487
-2.486875,0.03998735181651582,0.0671613671207216
-2.4865625,0.04078464163325143,0.0799075918356829
-2.48625,0.04955482961724737,0.1444353544548186
-2.4859375,0.05114940925070263,0.2089631170740131
-2.485625,0.05114940925070263,0.2408286788612406
-2.4853125,0.05114940925070263,0.2543715426208536
-2.485,0.05194669906743025,0.2543715426208536
-2.4846875,0.05194669906743025,0.2607446549782991
-2.484375,0.04955482961724737,0.2432185959953138
-2.4840625,0.04875753980051974,0.2256925370122974
-2.48375,0.04875753980051974,0.1978101704484733
-2.4834375,0.04636567035033685,0.1659446086612168
-2.483125,0.04397380090015252,0.1340790468739364
-2.4828125,0.04237922126669871,0.1077899583994737
-2.4825,0.04158193144997108,0.08229750896966845
-2.4821875,0.04078464163324418,0.06158489380797055
-2.481875,0.03759548236633294,0.03768572246750933
-2.4815625,0.03121716383251191,0.002633604501527164
-2.48125,0.0264334249321505,-0.01568909352612867
-2.4809375,0.02563613511541852,-0.02445212301764087
-2.480625,0.022446975848508,-0.04038490391126913
-2.4803125,0.02085239621505275,-0.05791096289426021
-2.48,0.01925781658159749,-0.0698605485644814
-2.4796875,0.01925781658159532,-0.07703029996662354
-2.479375,0.01686594713141461,-0.08738660754747248
-2.4790625,0.01846052676486986,-0.08420005136874684
-2.47875,0.02005510639832584,-0.07065718760915267
-2.4784375,0.02085239621505275,-0.05950424098362303
-2.478125,0.02164968603178038,-0.04914793340276467
-2.4778125,0.02324426566523418,-0.03958826486659641
-2.4775,0.0280280045656014,-0.01489245448146392
-2.4771875,0.03121716383251191,0.0002436873674829254
-2.476875,0.02244697584851598,-0.02046892779421497
-2.4765625,0.01447407768123172,-0.07862357805597694
-2.47625,0.01606865731468698,-0.1025227493964164
-2.4759375,0.01606865731468698,-0.09933619321769367
-2.475625,0.01686594713141461,-0.09136980277087954
-2.4753125,0.01766323694814368,-0.07543702187723463
-2.475,0.01925781658159749,-0.0571143238495788
-2.4746875,0.02164968603178038,-0.03560506964318065
-2.474375,0.02404155548196108,-0.01728237161552482
-2.4740625,0.03041987401578429,0.001836965456845751
-2.47375,0.0336090332826948,0.01617646826111118
-2.4734375,0.03440632309942171,0.02653277584196013
-2.473125,0.03440632309942243,0.03051597106537661
-2.4728125,0.03600090273287768,0.03370252724410226
-2.4725,0.03600090273287768,0.03529580533346509
-2.4721875,0.03520361291615006,0.0360924443781465
-2.471875,0.03600090273287695,0.03688908342282719
-2.4715625,0.03520361291615006,0.0360924443781465
-2.47125,0.03600090273287768,0.0360924443781465
-2.4709375,0.03520361291615151,0.03449916628878875
-2.470625,0.03679819254960531,0.04007563960155357
-2.4703125,0.0391900619997882,0.05999161571858888
-2.47,0.0399873518165151,0.07512775756752196
-2.4696875,0.0447710907168816,0.1133664317122435
-2.469375,0.05114940925070263,0.1906404190463406
-2.4690625,0.05035211943397572,0.230472371280375
-2.46875,0.05114940925070263,0.2527782645314908
-2.4684375,0.05035211943397645,0.2527782645314988
-2.468125,0.05194669906743025,0.2615412940229863
-2.4678125,0.050352119433975,0.2511849864421279
-2.4675,0.04875753980051901,0.2312690103250709
-2.4671875,0.04796024998379211,0.2073698389846503
-2.466875,0.04716296016706448,0.177894194331438
-2.4665625,0.04477109071688377,0.1444353544548491
-2.46625,0.04237922126669871,0.118146265980332
-2.4659375,0.04237922126669871,0.09185717750584539
-2.465625,0.0407846416332449,0.06955128425478613
-2.4653125,0.0391900619997882,0.0488386690930491
-2.465,0.03281174346596717,0.01617646826111118
-2.4646875,0.02643342493214615,-0.01090925925805685
-2.464375,0.02563613511541852,-0.02046892779423381
-2.4640625,0.02244697584850655,-0.03401179155383521
-2.46375,0.02085239621505275,-0.05313112862617173
-2.4634375,0.01925781658159749,-0.06667399238575575
-2.463125,0.01846052676486914,-0.07543702187725781
-2.4628125,0.01766323694814223,-0.08260677327938401
-2.4625,0.01686594713141461,-0.08818324659215389
-2.4621875,0.01846052676486841,-0.07623366092194357
-2.461875,0.01925781658159749,-0.0634874362070301
-2.4615625,0.02005510639832512,-0.05233448958149032
-2.46125,0.02085239621505202,-0.04596137722404481
-2.4609375,0.02563613511541852,-0.02365548397295946
-2.460625,0.02962258419905449,-0.004536146900606276
-2.4603125,0.02723071474887378,-0.005332785945286964
-2.46,0.01606865731468698,-0.06109751907298586
-2.4596875,0.01367678786450627,-0.09853955417301444
-2.459375,0.01606865731468698,-0.1009294713070565
-2.4590625,0.01606865731468698,-0.09614963703896802
-2.45875,0.01766323694814078,-0.08101349519003495
-2.4584375,0.01925781658159749,-0.06428407525171151
-2.458125,0.02085239621505275,-0.04118154295595054
-2.4578125,0.02324426566523346,-0.0236554839729754
-2.4575,0.0280280045656014,-0.005332785945286964
-2.4571875,0.03281174346596717,0.01059999494834129
-2.456875,0.03440632309942243,0.0233462196632439
-2.4565625,0.03440632309942243,0.02892269297601379
-2.45625,0.03520361291615006,0.03290588819942157
-2.4559375,0.03520361291615006,0.03370252724410226
-2.455625,0.03520361291615006,0.03529580533346509
-2.4553125,0.03600090273287695,0.03609244437814578
-2.455,0.03520361291615006,0.03529580533346509
-2.4546875,0.03520361291615006,0.03529580533346509
-2.454375,0.03520361291615006,0.03370252724410371
-2.4540625,0.03600090273287768,0.03529580533346509
-2.45375,0.03839277218306057,0.05202522527177476
-2.4534375,0.03919006199978747,0.07034792329943058
-2.453125,0.04237922126669871,0.08946726037180115
-2.4528125,0.050352119433975,0.1659446086612646
-2.4525,0.050352119433975,0.21852278561019
-2.4521875,0.05194669906743025,0.2464051521740395
-2.451875,0.05194669906743098,0.2535749035761758
-2.4515625,0.05274398888415788,0.2575580987995792
-2.45125,0.05194669906743025,0.255168181665535
-2.4509375,0.04955482961724954,0.2368454836378792
-2.450625,0.04796024998379211,0.2177261465655086
-2.4503125,0.04796024998379211,0.1874538628676149
-2.45,0.0455683805336114,0.1555883010803874
-2.4496875,0.04317651108342634,0.1261126564271461
-2.449375,0.04158193144997108,0.09982356795265952
-2.4490625,0.04158193144997108,0.07512775756753573
-2.44875,0.04078464163324345,0.05600842049518182
-2.4484375,0.03600090273287115,0.02812605393130267
-2.448125,0.02882529438232903,-0.004536146900605552
-2.4478125,0.02643342493214615,-0.01807901066018957
-2.4475,0.02404155548196108,-0.0284353182410646
-2.4471875,0.02164968603178038,-0.04675801626872043
-2.446875,0.02085239621505275,-0.06189415811766727
-2.4465625,0.01925781658159894,-0.07304710474319691
-2.44625,0.01846052676486986,-0.07942021710065836
-2.4459375,0.01846052676486986,-0.08977652468151671
-2.445625,0.01925781658159677,-0.08021685614534846
-2.4453125,0.02085239621505275,-0.06667399238575575
-2.445,0.02085239621505275,-0.055521045760208
-2.4446875,0.02085239621505275,-0.04675801626872043
-2.444375,0.02404155548196326,-0.032418513464455
-2.4440625,0.02882529438233048,-0.00931598116868316
-2.44375,0.03041987401578429,0.002633604501527164
-2.4434375,0.01846052676486986,-0.03799498677722489
-2.443125,0.01367678786450844,-0.08897988563678894
-2.4428125,0.01527136749795935,-0.1001328322623751
-2.4425,0.01527136749795935,-0.09694627608364943
-2.4421875,0.01686594713141316,-0.08658996850280049
-2.441875,0.01766323694814223,-0.07065718760916281
-2.4415625,0.02005510639832512,-0.04835129435808325
-2.44125,0.022446975848508,-0.02923195728572935
-2.4409375,0.02563613511541852,-0.01170589830273827
-2.440625,0.03121716383251481,0.005023521635584444
-2.4403125,0.03440632309942243,0.01936302443983683
-2.44,0.03440632309942243,0.02892269297601379
-2.4396875,0.03440632309942316,0.03210924915474161
-2.439375,0.03520361291615006,0.03449916628878368
-2.4390625,0.03520361291615006,0.0360924443781465
-2.43875,0.03600090273287695,0.0360924443781465
-2.4384375,0.03520361291615006,0.03529580533346509
